<?xml version="1.0" encoding="utf-8"?>
<!-- Generator: Adobe Illustrator 22.1.0, SVG Export Plug-In . SVG Version: 6.00 Build 0)  -->
<svg version="1.1" id="Layer_1" xmlns="http://www.w3.org/2000/svg" xmlns:xlink="http://www.w3.org/1999/xlink" x="0px" y="0px"
	 viewBox="0 0 256 256" style="enable-background:new 0 0 256 256;" xml:space="preserve">
<style type="text/css">
	.st0{fill:#FFFFFF;}
</style>
<g>
	<path class="st0" d="M128,16c61.8,0,112,50.3,112,112s-50.3,112-112,112S16,189.8,16,128S66.3,16,128,16 M128,0
		C57.3,0,0,57.3,0,128s57.3,128,128,128s128-57.3,128-128S198.7,0,128,0L128,0z M199.4,170.8l-0.7-2.2c-1.7-5-7.3-10.3-12.4-11.7
		l-18.9-5.2c-5.1-1.4-12.4,0.5-16.2,4.3l-6.8,6.8c-24.9-6.7-44.4-26.3-51.1-51.1l6.8-6.8c3.8-3.8,5.6-11.1,4.2-16.2l-5.2-18.9
		c-1.4-5.1-6.7-10.7-11.7-12.4l-2.2-0.7c-1.8-0.4-4.9-0.9-8.5-0.2c-4.3,0.9-7.1,2.9-9.3,4.5c-1.1,0.8-5.2,4-8.5,9.7c0,0-1.9,3.3-3,7
		c-2,7.2-1.7,49.8,35.4,86.9c37.3,37.3,79.9,37.2,86.6,35.4c4-1.1,7.4-3,7.4-3c4.6-2.6,7.8-5.9,9.8-8.5c1.2-1.5,3.5-4.6,4.4-9.2
		C200.2,175.6,199.8,172.6,199.4,170.8z"/>
</g>
</svg>
